<svg version="1.1" id="Layer_1" xmlns="http://www.w3.org/2000/svg" xmlns:xlink="http://www.w3.org/1999/xlink" x="0px" y="0px"
	 viewBox="0 0 324 95.3" style="enable-background:new 0 0 324 95.3;" xml:space="preserve">
<style type="text/css">
	.st0{fill:none;stroke:#FBCF0E;stroke-width:6;stroke-miterlimit:10;}
</style>
<polyline class="st0" points="0,52.8 27,61 53,37.8 137,90.8 206,58.8 291,69.8 324,44.8 "/>
</svg>