<svg version="1.1" id="Layer_1" xmlns="http://www.w3.org/2000/svg" xmlns:xlink="http://www.w3.org/1999/xlink" x="0px" y="0px"
	 viewBox="0 0 324 258.3" style="enable-background:new 0 0 324 258.3;" xml:space="preserve">
<style type="text/css">
	.st0{fill:#D52F27;}
</style>
<polygon class="st0" points="324,258.3 0,258.3 0,92.3 40,123.3 109,70.3 157.8,99 214,41.3 273,133.3 324,68.3 "/>
</svg>